{
	
		"TITLE" : "PHP Mailer",
		"ICON" : "icon.png",
		"TYPE" : "library",
		"MODUL" :
		{
			"REQUIRED" :
			{
			},
			"OPTIONAL" :
			{
			},
			"INCOMPATIBLE" :
			{
			}
		},
		"SERVER" :
		{
			"REQUIRED" :
			{
				"php_version" : "5.6",
				"memory_limit" : "128",
				"max_execution_time" : "120"
			},
			"OPTIONAL" :
			{
				"php_version" : "7",
				"memory_limit" : "256"
			}
		},
		"DESCRIPTION" : "PHP Mailer",
		"CHANGLOG" : "* born 2016",
		"CREATOR" :
		{
			"company" : "",
			"author" : "",
			"email" : "",
			"url" : "",
			"date" : "20160818"
		}

}